<define-tag pagetitle>DSA-4882-1 openjpeg2</define-tag>
<define-tag report_date>2021-4-01</define-tag>
<define-tag secrefs>CVE-2020-6851 CVE-2020-8112 CVE-2020-15389 CVE-2020-27814 CVE-2020-27823 CVE-2020-27824 CVE-2020-27841 CVE-2020-27842 CVE-2020-27843 CVE-2020-27845</define-tag>
<define-tag packages>openjpeg2</define-tag>
<define-tag isvulnerable>yes</define-tag>
<define-tag fixed>yes</define-tag>
<define-tag fixed-section>no</define-tag>

#use wml::debian::security



</dl>
