<define-tag pagetitle>DLA-1028-1 apache2</define-tag>
<define-tag report_date>2017-7-17</define-tag>
<define-tag secrefs>CVE-2017-9788 Bug##868467</define-tag>
<define-tag packages>apache2</define-tag>
<define-tag isvulnerable>yes</define-tag>
<define-tag fixed>yes</define-tag>
<define-tag fixed-section>no</define-tag>

#use wml::debian::security

