<define-tag pagetitle>DLA-869-1 cgiemail</define-tag>
<define-tag report_date>2017-3-24</define-tag>
<define-tag secrefs>CVE-2017-5613 CVE-2017-5614 CVE-2017-5615 CVE-2017-5616 Bug#852031</define-tag>
<define-tag packages>cgiemail</define-tag>
<define-tag isvulnerable>yes</define-tag>
<define-tag fixed>yes</define-tag>
<define-tag fixed-section>no</define-tag>

#use wml::debian::security

