<define-tag pagetitle>DLA-1090-1 tcpdump</define-tag>
<define-tag report_date>2017-9-6</define-tag>
<define-tag secrefs>CVE-2017-11108 CVE-2017-11541 CVE-2017-11542 CVE-2017-11543</define-tag>
<define-tag packages>tcpdump</define-tag>
<define-tag isvulnerable>yes</define-tag>
<define-tag fixed>yes</define-tag>
<define-tag fixed-section>no</define-tag>

#use wml::debian::security

