<define-tag pagetitle>DLA-2403-1 rails</define-tag>
<define-tag report_date>2020-10-9</define-tag>
<define-tag secrefs>CVE-2020-15169 Bug#970040</define-tag>
<define-tag packages>rails</define-tag>
<define-tag isvulnerable>yes</define-tag>
<define-tag fixed>yes</define-tag>
<define-tag fixed-section>no</define-tag>

#use wml::debian::security

