<define-tag pagetitle>DLA-2422-1 qtsvg-opensource-src</define-tag>
<define-tag report_date>2020-10-31</define-tag>
<define-tag secrefs>CVE-2018-19869</define-tag>
<define-tag packages>qtsvg-opensource-src</define-tag>
<define-tag isvulnerable>yes</define-tag>
<define-tag fixed>yes</define-tag>
<define-tag fixed-section>no</define-tag>

#use wml::debian::security

