<define-tag pagetitle>DLA-2466-1 drupal7</define-tag>
<define-tag report_date>2020-11-27</define-tag>
<define-tag secrefs>CVE-2020-28948 CVE-2020-28949</define-tag>
<define-tag packages>drupal7</define-tag>
<define-tag isvulnerable>yes</define-tag>
<define-tag fixed>yes</define-tag>
<define-tag fixed-section>no</define-tag>

#use wml::debian::security

