<define-tag pagetitle>DSA-4512-1 qemu</define-tag>
<define-tag report_date>2019-9-02</define-tag>
<define-tag secrefs>CVE-2019-13164 CVE-2019-14378</define-tag>
<define-tag packages>qemu</define-tag>
<define-tag isvulnerable>yes</define-tag>
<define-tag fixed>yes</define-tag>
<define-tag fixed-section>no</define-tag>

#use wml::debian::security



</dl>
