<define-tag pagetitle>DSA-4513-1 samba</define-tag>
<define-tag report_date>2019-9-03</define-tag>
<define-tag secrefs>CVE-2019-10197</define-tag>
<define-tag packages>samba</define-tag>
<define-tag isvulnerable>yes</define-tag>
<define-tag fixed>yes</define-tag>
<define-tag fixed-section>no</define-tag>

#use wml::debian::security



</dl>
