<define-tag pagetitle>DLA-265-2 pykerberos</define-tag>
<define-tag report_date>2015-8-26</define-tag>
<define-tag secrefs>CVE-2015-3206</define-tag>
<define-tag packages>pykerberos</define-tag>
<define-tag isvulnerable>yes</define-tag>
<define-tag fixed>yes</define-tag>
<define-tag fixed-section>no</define-tag>

#use wml::debian::security

