<define-tag pagetitle>DLA-1956-1 ruby-openid</define-tag>
<define-tag report_date>2019-10-11</define-tag>
<define-tag secrefs>CVE-2019-11027</define-tag>
<define-tag packages>ruby-openid</define-tag>
<define-tag isvulnerable>yes</define-tag>
<define-tag fixed>yes</define-tag>
<define-tag fixed-section>no</define-tag>

#use wml::debian::security

