<define-tag pagetitle>DLA-1655-1 mariadb-10.0</define-tag>
<define-tag report_date>2019-2-1</define-tag>
<define-tag secrefs>CVE-2019-2529 CVE-2019-2537</define-tag>
<define-tag packages>mariadb-10.0</define-tag>
<define-tag isvulnerable>yes</define-tag>
<define-tag fixed>yes</define-tag>
<define-tag fixed-section>no</define-tag>

#use wml::debian::security

