<define-tag pagetitle>DLA-659-1 systemd</define-tag>
<define-tag report_date>2016-10-18</define-tag>
<define-tag secrefs>CVE-2016-7796 Bug#839607</define-tag>
<define-tag packages>systemd</define-tag>
<define-tag isvulnerable>yes</define-tag>
<define-tag fixed>yes</define-tag>
<define-tag fixed-section>no</define-tag>

#use wml::debian::security

